waveform/core_test.vcd
$date
	Mon Mar  2 18:14:07 2026
$end
$version
	Icarus Verilog
$end
$timescale
	1ps
$end
$scope module core_test $end
$var wire 1 ! bus_write $end
$var wire 32 " bus_wdata [31:0] $end
$var wire 1 # bus_valid $end
$var wire 32 $ bus_addr [31:0] $end
$var reg 32 % bus_rdata [31:0] $end
$var reg 1 & bus_ready $end
$var reg 1 ' clk $end
$var reg 1 ( meip $end
$var reg 1 ) msip $end
$var reg 1 * mtip $end
$var reg 1 + rst_n $end
$scope module dut $end
$var wire 32 , bus_addr [31:0] $end
$var wire 32 - bus_rdata [31:0] $end
$var wire 1 & bus_ready $end
$var wire 1 # bus_valid $end
$var wire 32 . bus_wdata [31:0] $end
$var wire 1 ! bus_write $end
$var wire 1 ' clk $end
$var wire 1 / core_bus_req $end
$var wire 1 0 cpu_stall $end
$var wire 1 1 dmem_re $end
$var wire 1 2 dmem_we $end
$var wire 1 3 external_irq $end
$var wire 1 4 final_fbuf_en $end
$var wire 1 5 final_pc_write $end
$var wire 1 6 final_reg_write $end
$var wire 1 ( meip $end
$var wire 1 ) msip $end
$var wire 1 * mtip $end
$var wire 1 7 rst $end
$var wire 1 + rst_n $end
$var wire 1 8 software_irq $end
$var wire 1 9 timer_irq $end
$var wire 1 : zero $end
$var wire 2 ; wb_sel [1:0] $end
$var wire 1 < trap_enter $end
$var wire 32 = trap_cause [31:0] $end
$var wire 5 > rs2_wire [4:0] $end
$var wire 32 ? rs2_data_wire [31:0] $end
$var wire 5 @ rs1_wire [4:0] $end
$var wire 32 A rs1_data_wire [31:0] $end
$var wire 1 B rf_latch_en $end
$var wire 1 C reg_write $end
$var wire 5 D rd_wire [4:0] $end
$var wire 32 E rd_data_wire [31:0] $end
$var wire 1 F pc_write $end
$var wire 2 G pc_src_sel [1:0] $end
$var wire 32 H pc_nxt [31:0] $end
$var wire 32 I muxed_mem_rdata [31:0] $end
$var wire 32 J mtvec_out [31:0] $end
$var wire 1 K mret_exec $end
$var wire 32 L mepc_out [31:0] $end
$var wire 1 M mem_write_en $end
$var wire 1 N mem_read_en $end
$var wire 32 O mem_read_data [31:0] $end
$var wire 1 P lt_unsigned $end
$var wire 1 Q lt_signed $end
$var wire 1 R is_imem_addr $end
$var wire 1 S is_dmem_addr $end
$var wire 1 T is_apb_addr $end
$var wire 1 U interrupt_pending $end
$var wire 32 V interrupt_cause_wire [31:0] $end
$var wire 3 W imm_sel [2:0] $end
$var wire 32 X imm_out_wire [31:0] $end
$var wire 3 Y funct3_wire [2:0] $end
$var wire 32 Z fetch_pc [31:0] $end
$var wire 32 [ fetch_instr [31:0] $end
$var wire 1 \ fbuf_en $end
$var wire 1 ] data_misaligned $end
$var wire 1 ^ csr_we $end
$var wire 32 _ csr_wdata_mux [31:0] $end
$var wire 32 ` csr_rdata_wire [31:0] $end
$var wire 2 a csr_op [1:0] $end
$var wire 32 b buffered_pc [31:0] $end
$var wire 32 c buffered_instr [31:0] $end
$var wire 1 d aluout_en $end
$var wire 4 e alu_sel [3:0] $end
$var wire 32 f alu_out_wire [31:0] $end
$var wire 2 g alu_b_sel [1:0] $end
$var wire 32 h alu_b_in [31:0] $end
$var wire 2 i alu_a_sel [1:0] $end
$var wire 32 j alu_a_in [31:0] $end
$var reg 32 k ALUOut [31:0] $end
$var reg 32 l RD1 [31:0] $end
$var reg 32 m RD2 [31:0] $end
$scope module ALU $end
$var wire 1 : zero $end
$var wire 32 n sum [31:0] $end
$var wire 5 o shamt [4:0] $end
$var wire 4 p sel [3:0] $end
$var wire 1 P lt_unsigned $end
$var wire 1 Q lt_signed $end
$var wire 1 q is_sub $end
$var wire 32 r B [31:0] $end
$var wire 32 s A [31:0] $end
$var reg 32 t alu_out [31:0] $end
$upscope $end
$scope module CSR $end
$var wire 1 ' clk $end
$var wire 12 u csr_addr [11:0] $end
$var wire 32 v csr_old [31:0] $end
$var wire 32 w csr_wdata [31:0] $end
$var wire 1 3 ext_irq $end
$var wire 1 x ext_qual $end
$var wire 1 U interrupt_pending $end
$var wire 32 y mepc_out [31:0] $end
$var wire 32 z mtvec_out [31:0] $end
$var wire 1 7 rst $end
$var wire 1 8 sw_irq $end
$var wire 1 { sw_qual $end
$var wire 1 | tim_qual $end
$var wire 1 9 timer_irq $end
$var wire 32 } trap_pc [31:0] $end
$var wire 1 < trap_enter $end
$var wire 32 ~ trap_cause [31:0] $end
$var wire 1 K mret_exec $end
$var wire 32 !" interrupt_cause [31:0] $end
$var wire 1 "" global_ie $end
$var wire 1 #" csr_write_en $end
$var wire 1 ^ csr_valid $end
$var wire 2 $" csr_op [1:0] $end
$var parameter 32 %" misa $end
$var reg 32 &" csr_new [31:0] $end
$var reg 32 '" csr_rdata [31:0] $end
$var reg 32 (" mcause [31:0] $end
$var reg 32 )" mepc [31:0] $end
$var reg 32 *" mie [31:0] $end
$var reg 32 +" mip [31:0] $end
$var reg 32 ," mscratch [31:0] $end
$var reg 32 -" mstatus [31:0] $end
$var reg 32 ." mtvec [31:0] $end
$upscope $end
$scope module CU $end
$var wire 1 & bus_ready $end
$var wire 1 ' clk $end
$var wire 1 /" ebreak_true $end
$var wire 1 0" ecall_true $end
$var wire 32 1" interrupt_cause [31:0] $end
$var wire 1 U interrupt_pending $end
$var wire 1 Q lt_signed $end
$var wire 1 P lt_unsigned $end
$var wire 1 2" mret_true $end
$var wire 1 3" privileged_instr $end
$var wire 1 7 rst $end
$var wire 1 : zero $end
$var wire 1 4" system_instr $end
$var wire 7 5" opcode [6:0] $end
$var wire 1 6" is_system $end
$var wire 1 7" is_store $end
$var wire 1 8" is_rtype $end
$var wire 1 9" is_lui $end
$var wire 1 :" is_load $end
$var wire 1 ;" is_jalr $end
$var wire 1 <" is_jal $end
$var wire 1 =" is_itype $end
$var wire 1 >" is_branch $end
$var wire 1 ?" is_auipc $end
$var wire 32 @" instr_in [31:0] $end
$var wire 12 A" imm12 [11:0] $end
$var wire 7 B" funct7 [6:0] $end
$var wire 3 C" funct3 [2:0] $end
$var parameter 4 D" S_BRANCH $end
$var parameter 4 E" S_CSR $end
$var parameter 4 F" S_DECODE $end
$var parameter 4 G" S_EXECUTE $end
$var parameter 4 H" S_FETCH $end
$var parameter 4 I" S_FETCH_WAIT $end
$var parameter 4 J" S_JALR $end
$var parameter 4 K" S_MEM_READ $end
$var parameter 4 L" S_MEM_WAIT $end
$var parameter 4 M" S_MEM_WRITE $end
$var parameter 4 N" S_TRAP $end
$var parameter 4 O" S_WB $end
$var reg 2 P" alu_a_sel [1:0] $end
$var reg 2 Q" alu_b_sel [1:0] $end
$var reg 4 R" alu_sel [3:0] $end
$var reg 1 d aluout_en $end
$var reg 2 S" csr_op [1:0] $end
$var reg 1 ^ csr_we $end
$var reg 1 \ fbuf_en $end
$var reg 3 T" imm_sel [2:0] $end
$var reg 1 N mem_read $end
$var reg 1 M mem_write $end
$var reg 1 K mret_exec $end
$var reg 4 U" next_state [3:0] $end
$var reg 32 V" next_trap_cause [31:0] $end
$var reg 2 W" pc_src_sel [1:0] $end
$var reg 1 F pc_write $end
$var reg 1 C reg_write $end
$var reg 1 B rf_latch_en $end
$var reg 4 X" state [3:0] $end
$var reg 32 Y" trap_cause [31:0] $end
$var reg 32 Z" trap_cause_reg [31:0] $end
$var reg 1 < trap_enter $end
$var reg 2 [" wb_sel [1:0] $end
$upscope $end
$scope module DM $end
$var wire 32 \" address [31:0] $end
$var wire 1 ' clk $end
$var wire 3 ]" funct3 [2:0] $end
$var wire 1 1 read_en $end
$var wire 32 ^" write_data [31:0] $end
$var wire 1 2 write_en $end
$var wire 10 _" word_addr [9:0] $end
$var wire 2 `" byte_offset [1:0] $end
$var parameter 3 a" F3_LB $end
$var parameter 3 b" F3_LBU $end
$var parameter 3 c" F3_LH $end
$var parameter 3 d" F3_LHU $end
$var parameter 3 e" F3_LW $end
$var parameter 3 f" F3_SB $end
$var parameter 3 g" F3_SH $end
$var parameter 3 h" F3_SW $end
$var reg 4 i" byte_en [3:0] $end
$var reg 1 ] misaligned $end
$var reg 32 j" raw_read_word [31:0] $end
$var reg 32 k" read_data [31:0] $end
$var reg 3 l" read_funct3_reg [2:0] $end
$var reg 2 m" read_offset_reg [1:0] $end
$var reg 32 n" wdata_aligned [31:0] $end
$var integer 32 o" i [31:0] $end
$upscope $end
$scope module RF $end
$var wire 1 ' clk $end
$var wire 5 p" rd [4:0] $end
$var wire 1 6 reg_write $end
$var wire 5 q" rs1 [4:0] $end
$var wire 5 r" rs2 [4:0] $end
$var wire 32 s" rs2_data [31:0] $end
$var wire 32 t" rs1_data [31:0] $end
$var wire 32 u" rd_data [31:0] $end
$var integer 32 v" i [31:0] $end
$upscope $end
$scope module SignExt $end
$var wire 3 w" imm_sel [2:0] $end
$var wire 32 x" instr_in [31:0] $end
$var reg 32 y" imm_out [31:0] $end
$upscope $end
$scope module WB $end
$var wire 32 z" in0 [31:0] $end
$var wire 32 {" in1 [31:0] $end
$var wire 32 |" in2 [31:0] $end
$var wire 32 }" in3 [31:0] $end
$var wire 2 ~" select [1:0] $end
$var reg 32 !# mux_out [31:0] $end
$upscope $end
$scope module dut_buffer $end
$var wire 1 ' clk $end
$var wire 1 4 fbuf_en $end
$var wire 1 7 rst $end
$var wire 32 "# pc_in [31:0] $end
$var wire 32 ## instr_in [31:0] $end
$var reg 32 $# instr [31:0] $end
$var reg 32 %# pc [31:0] $end
$upscope $end
$scope module dut_fetch $end
$var wire 1 ' clk $end
$var wire 1 5 pc_write $end
$var wire 1 7 rst $end
$var wire 32 &# pc_out_wire [31:0] $end
$var wire 32 '# pc_nxt [31:0] $end
$var wire 32 (# pc_current [31:0] $end
$var wire 32 )# instr_out [31:0] $end
$scope module PC $end
$var wire 1 ' clk $end
$var wire 1 5 pc_write $end
$var wire 1 7 rst $end
$var wire 32 *# pc_val [31:0] $end
$var reg 32 +# pc_out [31:0] $end
$upscope $end
$scope module ROM $end
$var wire 32 ,# addr [31:0] $end
$var wire 1 ' clk $end
$var reg 32 -# addr_out [31:0] $end
$var reg 32 .# instr [31:0] $end
$upscope $end
$upscope $end
$scope module muxA $end
$var wire 32 /# in0 [31:0] $end
$var wire 32 0# in1 [31:0] $end
$var wire 32 1# in2 [31:0] $end
$var wire 32 2# in3 [31:0] $end
$var wire 2 3# select [1:0] $end
$var reg 32 4# mux_out [31:0] $end
$upscope $end
$scope module muxB $end
$var wire 32 5# in0 [31:0] $end
$var wire 32 6# in1 [31:0] $end
$var wire 32 7# in2 [31:0] $end
$var wire 32 8# in3 [31:0] $end
$var wire 2 9# select [1:0] $end
$var reg 32 :# mux_out [31:0] $end
$upscope $end
$scope module mux_pc $end
$var wire 32 ;# in0 [31:0] $end
$var wire 32 <# in1 [31:0] $end
$var wire 32 =# in2 [31:0] $end
$var wire 32 ># in3 [31:0] $end
$var wire 2 ?# select [1:0] $end
$var reg 32 @# mux_out [31:0] $end
$upscope $end
$upscope $end
$scope task print_regs $end
$var integer 32 A# i [31:0] $end
$upscope $end
$upscope $end
$enddefinitions $end
$comment Show the parameter values. $end
$dumpall
b10 h"
b1 g"
b0 f"
b10 e"
b101 d"
b1 c"
b100 b"
b0 a"
b101 O"
b1011 N"
b1000 M"
b111 L"
b110 K"
b1010 J"
b10 I"
b1 H"
b100 G"
b11 F"
b1100 E"
b1001 D"
b1000000000000000000000100000000 %"
$end
#0
$dumpvars
bx A#
bx @#
b0 ?#
bx >#
bx =#
bx0 <#
bx ;#
bx :#
b0 9#
b0 8#
b100 7#
b0 6#
bx 5#
bx 4#
b0 3#
bx 2#
b0 1#
bx 0#
bx /#
bx .#
bx -#
bx ,#
bx +#
bx *#
bx )#
bx (#
bx '#
bx &#
bx %#
bx $#
bx ##
bx "#
bx !#
b0 ~"
bx }"
bx |"
bx {"
bx z"
b0 y"
bx x"
b0 w"
b100000 v"
bx u"
bx t"
bx s"
bx r"
bx q"
bx p"
b10000000000 o"
bx n"
bx m"
bx l"
bx k"
bx j"
b0 i"
bx `"
bx _"
bx ^"
bx ]"
bx \"
b0 ["
bx Z"
bx Y"
bx X"
b0 W"
b10 V"
b1 U"
b0 T"
b0 S"
b0 R"
b0 Q"
b0 P"
bx C"
bx B"
bx A"
bx @"
x?"
x>"
x="
x<"
x;"
x:"
x9"
x8"
x7"
x6"
bx 5"
x4"
x3"
x2"
bx000000000000000000000000000xxxx 1"
x0"
x/"
bx ."
bx -"
bx ,"
bx +"
bx *"
bx )"
bx ("
bx '"
bx &"
b0 $"
1#"
x""
bx000000000000000000000000000xxxx !"
bx ~
bx }
x|
x{
bx z
bx y
xx
bx w
bx v
bx u
bx t
bx s
bx r
0q
b0 p
bx o
bx n
bx m
bx l
bx k
bx j
b0 i
bx h
b0 g
bx f
b0 e
0d
bx c
bx b
b0 a
bx `
bx _
0^
x]
0\
bx [
bx Z
bx Y
b0 X
b0 W
bx000000000000000000000000000xxxx V
xU
xT
xS
xR
xQ
xP
bx O
0N
0M
bx L
0K
bx J
bx I
bx H
b0 G
0F
bx E
bx D
0C
0B
bx A
bx @
bx ?
bx >
bx =
0<
b0 ;
x:
09
08
17
06
05
04
03
02
01
00
0/
bx .
bx -
bx ,
0+
0*
0)
0(
0'
x&
bx %
bx $
0#
bx "
0!
$end
#5000
b0 &"
0U
b0 _
b0 w
b0 V
b0 !"
b0 1"
00"
0/"
02"
03"
b0 ?
b0 s"
b0 A
b0 t"
0x
0{
0|
b100 o
b0 I
b0 {"
0]
b0 A"
b0 B"
b0 C"
08"
0="
0:"
07"
0>"
0<"
0;"
09"
0?"
06"
04"
b0 5"
b0 u
b0 Y
b0 ]"
b0 D
b0 p"
b0 >
b0 r"
b0 @
b0 q"
0""
b0 v
b0 `
b0 '"
b0 |"
b0 n"
b100 h
b100 r
b100 :#
1R
0S
0T
b0 _"
b0 `"
b0 E
b0 u"
b0 !#
b10 U"
b10 g
b10 Q"
b10 9#
b11 i
b11 P"
b11 3#
b0 =
b0 ~
b0 Y"
b0 &#
b0 +#
b0 ,#
b0 c
b0 @"
b0 x"
b0 $#
b0 b
b0 }
b0 %#
b0 0#
b0 Z"
b1 X"
b0 ,"
b0 *"
b0 -"
b0 ("
b0 L
b0 y
b0 >#
b0 )"
b100000000 J
b100000000 z
b100000000 =#
b100000000 ."
b0 +"
b0 "
b0 .
b0 m
b0 ^"
b0 5#
b0 l
b0 /#
b0 $
b0 ,
b0 k
b0 \"
b0 z"
b0 }"
b0 %
b0 -
0&
1'
#10000
0'
#15000
b100 H
b100 '#
b100 *#
b100 @#
b100 <#
b10 g
b10 Q"
b10 9#
b11 i
b11 P"
b11 3#
b10 U"
0:
b100 f
b100 t
b100 ;#
b100 n
1P
1Q
b0 j
b0 s
b0 4#
b0 Z
b0 "#
b0 (#
b0 -#
b0 2#
b101000000000000010010011 [
b101000000000000010010011 ##
b101000000000000010010011 )#
b101000000000000010010011 .#
1'
#20000
0'
#25000
1'
#30000
0'
#35000
1'
#40000
0'
#45000
1'
#50000
07
0'
1+
#55000
14
15
b11 U"
1\
1F
b10 g
b10 Q"
b10 9#
b11 i
b11 P"
b11 3#
1&
b10 X"
1'
#60000
0'
#65000
b0 H
b0 '#
b0 *#
b0 @#
b0 <#
1:
b0 f
b0 t
b0 ;#
b1010 X
b1010 y"
b1010 6#
b0 n
b0 o
b1 W
b1 T"
b1 w"
0P
0Q
b0 h
b0 r
b0 :#
04
05
b1010 A"
1="
b10011 5"
b1010 u
b1 D
b1 p"
b1010 >
b1010 r"
b100 U"
1B
b0 g
b0 Q"
b0 9#
b0 i
b0 P"
b0 3#
0\
0F
b100 &#
b100 +#
b100 ,#
b101000000000000010010011 c
b101000000000000010010011 @"
b101000000000000010010011 x"
b101000000000000010010011 $#
b11 X"
1'
#70000
0'
#75000
b1010 H
b1010 '#
b1010 *#
b1010 @#
b1010 <#
0:
b1010 f
b1010 t
b1010 ;#
b1010 n
b1010 o
1P
1Q
b1010 h
b1010 r
b1010 :#
b101 U"
1d
b1 g
b1 Q"
b1 9#
0B
b100 X"
b100 Z
b100 "#
b100 (#
b100 -#
b100 2#
b1010000000000000100010011 [
b1010000000000000100010011 ##
b1010000000000000100010011 )#
b1010000000000000100010011 .#
1'
#80000
0'
#85000
b0 H
b0 '#
b0 *#
b0 @#
b0 <#
1:
b0 f
b0 t
b0 ;#
b0 n
b0 o
16
0P
0Q
b0 h
b0 r
b0 :#
b1 U"
1C
0d
b0 g
b0 Q"
b0 9#
b10 _"
b10 `"
b1010 E
b1010 u"
b1010 !#
b101 X"
b1010 $
b1010 ,
b1010 k
b1010 \"
b1010 z"
b1010 }"
1'
#90000
0'
#95000
b1000 H
b1000 '#
b1000 *#
b1000 @#
b1000 <#
b100 o
0:
b1000 f
b1000 t
b1000 ;#
b100 h
b100 r
b100 :#
b1000 n
b100 j
b100 s
b100 4#
06
b10 U"
b10 g
b10 Q"
b10 9#
b11 i
b11 P"
b11 3#
0C
b1 X"
1'
#100000
0'
#105000
14
15
b11 U"
1\
1F
b10 g
b10 Q"
b10 9#
b11 i
b11 P"
b11 3#
b10 X"
1'
#110000
0'
#115000
1:
b0 H
b0 '#
b0 *#
b0 @#
b0 <#
b0 o
b0 f
b0 t
b0 ;#
b0 n
b0 j
b0 s
b0 4#
04
05
b0 h
b0 r
b0 :#
b10100 A"
b10100 u
b10 D
b10 p"
b10100 >
b10100 r"
b100 U"
1B
b0 g
b0 Q"
b0 9#
b0 i
b0 P"
b0 3#
0\
0F
b10100 X
b10100 y"
b10100 6#
b11 X"
b1010000000000000100010011 c
b1010000000000000100010011 @"
b1010000000000000100010011 x"
b1010000000000000100010011 $#
b100 b
b100 }
b100 %#
b100 0#
b1000 &#
b1000 +#
b1000 ,#
1'
#120000
0'
#125000
b10100 H
b10100 '#
b10100 *#
b10100 @#
b10100 <#
0:
b10100 f
b10100 t
b10100 ;#
b10100 n
b10100 o
1P
1Q
b10100 h
b10100 r
b10100 :#
b101 U"
1d
b1 g
b1 Q"
b1 9#
0B
b1000 Z
b1000 "#
b1000 (#
b1000 -#
b1000 2#
b1000001000000110110011 [
b1000001000000110110011 ##
b1000001000000110110011 )#
b1000001000000110110011 .#
b100 X"
1'
#130000
0'
#135000
b0 H
b0 '#
b0 *#
b0 @#
b0 <#
1:
b0 f
b0 t
b0 ;#
b0 n
b0 o
16
0P
0Q
b0 h
b0 r
b0 :#
b101 _"
b0 `"
b10100 E
b10100 u"
b10100 !#
b1 U"
1C
0d
b0 g
b0 Q"
b0 9#
b10100 $
b10100 ,
b10100 k
b10100 \"
b10100 z"
b10100 }"
b101 X"
1'
#140000
0'
#145000
b1100 H
b1100 '#
b1100 *#
b1100 @#
b1100 <#
b100 o
0:
b1100 f
b1100 t
b1100 ;#
b100 h
b100 r
b100 :#
b1100 n
b1000 j
b1000 s
b1000 4#
06
b10 U"
b10 g
b10 Q"
b10 9#
b11 i
b11 P"
b11 3#
0C
b1 X"
1'
#150000
0'
#155000
14
15
b11 U"
1\
1F
b10 g
b10 Q"
b10 9#
b11 i
b11 P"
b11 3#
b10 X"
1'
#160000
0'
#165000
b1010 &"
1:
b1010 _
b1010 w
b0 H
b0 '#
b0 *#
b0 @#
b0 <#
b0 o
b10100 ?
b10100 s"
b1010 A
b1010 t"
b0 W
b0 T"
b0 w"
b0 f
b0 t
b0 ;#
b0 h
b0 r
b0 :#
04
05
b10 A"
18"
0="
b110011 5"
b10 u
b11 D
b11 p"
b10 >
b10 r"
b1 @
b1 q"
b0 X
b0 y"
b0 6#
b0 n
0P
0Q
b0 j
b0 s
b0 4#
b100 U"
1B
b0 g
b0 Q"
b0 9#
b0 i
b0 P"
b0 3#
0\
0F
b1100 &#
b1100 +#
b1100 ,#
b1000001000000110110011 c
b1000001000000110110011 @"
b1000001000000110110011 x"
b1000001000000110110011 $#
b1000 b
b1000 }
b1000 %#
b1000 0#
b11 X"
1'
#170000
0'
#175000
b11110 H
b11110 '#
b11110 *#
b11110 @#
b11110 <#
b10100 o
0:
b11110 f
b11110 t
b11110 ;#
b10100000101000001010000010100 n"
1P
1Q
b10100 h
b10100 r
b10100 :#
b101 U"
1d
0B
b11110 n
b1010 j
b1010 s
b1010 4#
b10100 "
b10100 .
b10100 m
b10100 ^"
b10100 5#
b1010 l
b1010 /#
b100 X"
b1100 Z
b1100 "#
b1100 (#
b1100 -#
b1100 2#
b1001000110111 [
b1001000110111 ##
b1001000110111 )#
b1001000110111 .#
1'
#180000
0'
#185000
16
b10100000101000001010000010100 n"
b1 U"
1C
0d
b111 _"
b10 `"
b11110 E
b11110 u"
b11110 !#
b101 X"
b11110 $
b11110 ,
b11110 k
b11110 \"
b11110 z"
b11110 }"
1'
#190000
0'
#195000
b10000 H
b10000 '#
b10000 *#
b10000 @#
b10000 <#
b100 o
b10000 f
b10000 t
b10000 ;#
0P
0Q
b100 h
b100 r
b100 :#
b10000 n
b1100 j
b1100 s
b1100 4#
06
b10 U"
b10 g
b10 Q"
b10 9#
b11 i
b11 P"
b11 3#
0C
b1 X"
1'
#200000
0'
#205000
14
15
b11 U"
1\
1F
b10 g
b10 Q"
b10 9#
b11 i
b11 P"
b11 3#
b10 X"
1'
#210000
0'
#215000
b0 &"
b11110 H
b11110 '#
b11110 *#
b11110 @#
b11110 <#
b1000000000000 X
b1000000000000 y"
b1000000000000 6#
b0 _
b0 w
b10100 o
b11110 f
b11110 t
b11110 ;#
b100 W
b100 T"
b100 w"
b101000000000000010100 n"
b0 ?
b0 s"
b0 A
b0 t"
1P
1Q
b10100 h
b10100 r
b10100 :#
b11110 n
b1010 j
b1010 s
b1010 4#
04
05
b0 A"
b1 C"
08"
19"
b110111 5"
b0 u
b1 Y
b1 ]"
b100 D
b100 p"
b0 >
b0 r"
b0 @
b0 q"
b100 U"
1B
b0 g
b0 Q"
b0 9#
b0 i
b0 P"
b0 3#
0\
0F
b11 X"
b1001000110111 c
b1001000110111 @"
b1001000110111 x"
b1001000110111 $#
b1100 b
b1100 }
b1100 %#
b1100 0#
b10000 &#
b10000 +#
b10000 ,#
1'
#220000
0'
#225000
0:
b1000000000000 H
b1000000000000 '#
b1000000000000 *#
b1000000000000 @#
b1000000000000 <#
b0 o
b1000000000000 f
b1000000000000 t
b1000000000000 ;#
b101 U"
1d
b1 g
b1 Q"
b1 9#
b10 i
b10 P"
b10 3#
0B
b0 n"
1P
1Q
b1000000000000 h
b1000000000000 r
b1000000000000 :#
b1000000000000 n
b0 j
b0 s
b0 4#
b10000 Z
b10000 "#
b10000 (#
b10000 -#
b10000 2#
b1100100010000000100011 [
b1100100010000000100011 ##
b1100100010000000100011 )#
b1100100010000000100011 .#
b100 X"
b0 "
b0 .
b0 m
b0 ^"
b0 5#
b0 l
b0 /#
1'
#230000
0'
#235000
b0 H
b0 '#
b0 *#
b0 @#
b0 <#
1:
b0 f
b0 t
b0 ;#
b0 n
bx I
bx {"
16
0P
0Q
b0 h
b0 r
b0 :#
0R
1S
b0 _"
b0 `"
b1000000000000 E
b1000000000000 u"
b1000000000000 !#
b1 U"
1C
0d
b0 g
b0 Q"
b0 9#
b0 i
b0 P"
b0 3#
b1000000000000 $
b1000000000000 ,
b1000000000000 k
b1000000000000 \"
b1000000000000 z"
b1000000000000 }"
b101 X"
1'
#240000
0'
#245000
b10100 H
b10100 '#
b10100 *#
b10100 @#
b10100 <#
b100 o
0:
b10100 f
b10100 t
b10100 ;#
b100 h
b100 r
b100 :#
b10100 n
b10000 j
b10000 s
b10000 4#
06
b10 U"
b10 g
b10 Q"
b10 9#
b11 i
b11 P"
b11 3#
0C
b1 X"
1'
#250000
0'
#255000
14
15
b11 U"
1\
1F
b10 g
b10 Q"
b10 9#
b11 i
b11 P"
b11 3#
b10 X"
1'
#260000
0'
#265000
b1000000000000 &"
1:
b1000000000000 _
b1000000000000 w
b0 H
b0 '#
b0 *#
b0 @#
b0 <#
b0 o
b11110 ?
b11110 s"
b1000000000000 A
b1000000000000 t"
b10 W
b10 T"
b10 w"
b0 f
b0 t
b0 ;#
b0 h
b0 r
b0 :#
04
05
b11 A"
b10 C"
17"
09"
b100011 5"
b11 u
b10 Y
b10 ]"
b0 D
b0 p"
b11 >
b11 r"
b100 @
b100 q"
b0 X
b0 y"
b0 6#
b0 n
0P
0Q
b0 j
b0 s
b0 4#
b100 U"
1B
b0 g
b0 Q"
b0 9#
b0 i
b0 P"
b0 3#
0\
0F
b10100 &#
b10100 +#
b10100 ,#
b1100100010000000100011 c
b1100100010000000100011 @"
b1100100010000000100011 x"
b1100100010000000100011 $#
b10000 b
b10000 }
b10000 %#
b10000 0#
b11 X"
1'
#270000
0'
#275000
b1000000000000 H
b1000000000000 '#
b1000000000000 *#
b1000000000000 @#
b1000000000000 <#
0:
b1000000000000 f
b1000000000000 t
b1000000000000 ;#
b11110 n"
b1000 U"
1d
b1 g
b1 Q"
b1 9#
0B
b1000000000000 n
b1000000000000 j
b1000000000000 s
b1000000000000 4#
b11110 "
b11110 .
b11110 m
b11110 ^"
b11110 5#
b1000000000000 l
b1000000000000 /#
b100 X"
b10100 Z
b10100 "#
b10100 (#
b10100 -#
b10100 2#
b100010001010000011 [
b100010001010000011 ##
b100010001010000011 )#
b100010001010000011 .#
1'
#280000
0'
#285000
b1000000011110 H
b1000000011110 '#
b1000000011110 *#
b1000000011110 @#
b1000000011110 <#
b1000000011110 f
b1000000011110 t
b1000000011110 ;#
b1111 i"
b11110 n"
b1000000011110 n
b11110 o
12
b11110 h
b11110 r
b11110 :#
b1 U"
1M
0d
b0 g
b0 Q"
b0 9#
b1000 X"
1'
#290000
0'
#295000
b11000 H
b11000 '#
b11000 *#
b11000 @#
b11000 <#
b100 o
b11000 f
b11000 t
b11000 ;#
b11110 n"
b0 i"
b100 h
b100 r
b100 :#
b11000 n
0P
0Q
b10100 j
b10100 s
b10100 4#
02
b10 U"
b10 g
b10 Q"
b10 9#
b11 i
b11 P"
b11 3#
0M
b1 X"
1'
#300000
0'
#305000
14
15
b11 U"
1\
1F
b10 g
b10 Q"
b10 9#
b11 i
b11 P"
b11 3#
b10 X"
1'
#310000
0'
#315000
b1000000011110 H
b1000000011110 '#
b1000000011110 *#
b1000000011110 @#
b1000000011110 <#
b11110 o
b1000000011110 f
b1000000011110 t
b1000000011110 ;#
b1 W
b1 T"
b1 w"
b0 ?
b0 s"
b1000000011110 n
b1000000000000 j
b1000000000000 s
b1000000000000 4#
04
05
0P
0Q
b11110 h
b11110 r
b11110 :#
b0 A"
1:"
07"
b11 5"
b0 u
b101 D
b101 p"
b0 >
b0 r"
b100 U"
1B
b0 g
b0 Q"
b0 9#
b0 i
b0 P"
b0 3#
0\
0F
b0 X
b0 y"
b0 6#
b11 X"
b100010001010000011 c
b100010001010000011 @"
b100010001010000011 x"
b100010001010000011 $#
b10100 b
b10100 }
b10100 %#
b10100 0#
b11000 &#
b11000 +#
b11000 ,#
1'
#320000
0'
#325000
b1000000000000 H
b1000000000000 '#
b1000000000000 *#
b1000000000000 @#
b1000000000000 <#
b1000000000000 f
b1000000000000 t
b1000000000000 ;#
b1000000000000 n
b0 o
b110 U"
1d
b1 g
b1 Q"
b1 9#
0B
b0 n"
b0 h
b0 r
b0 :#
b11000 Z
b11000 "#
b11000 (#
b11000 -#
b11000 2#
b10100011000010001100011 [
b10100011000010001100011 ##
b10100011000010001100011 )#
b10100011000010001100011 .#
b100 X"
b0 "
b0 .
b0 m
b0 ^"
b0 5#
1'
#330000
0'
#335000
11
b111 U"
1N
0d
b0 g
b0 Q"
b0 9#
b110 X"
1'
#340000
0'
#345000
b11110 I
b11110 {"
b101 U"
1N
b11110 O
b11110 k"
b111 X"
b11110 j"
b10 l"
b0 m"
1'
#350000
0'
#355000
b11110 E
b11110 u"
b11110 !#
16
01
b1 U"
b1 ;
b1 ["
b1 ~"
1C
0N
b101 X"
1'
#360000
0'
#365000
b11100 H
b11100 '#
b11100 *#
b11100 @#
b11100 <#
b100 o
b11100 f
b11100 t
b11100 ;#
b100 h
b100 r
b100 :#
b11100 n
b11000 j
b11000 s
b11000 4#
b1000000000000 E
b1000000000000 u"
b1000000000000 !#
06
b10 U"
b10 g
b10 Q"
b10 9#
b11 i
b11 P"
b11 3#
b0 ;
b0 ["
b0 ~"
0C
b1 X"
1'
#370000
0'
#375000
14
15
b11 U"
1\
1F
b10 g
b10 Q"
b10 9#
b11 i
b11 P"
b11 3#
b10 X"
1'
#380000
0'
#385000
b11110 &"
b11110 _
b11110 w
b1000000000000 H
b1000000000000 '#
b1000000000000 *#
b1000000000000 @#
b1000000000000 <#
b0 o
b11 W
b11 T"
b11 w"
b11110 ?
b11110 s"
b11110 A
b11110 t"
b1000000000000 f
b1000000000000 t
b1000000000000 ;#
b0 h
b0 r
b0 :#
04
05
b101 A"
b0 C"
0:"
1>"
b1100011 5"
b101 u
b0 Y
b0 ]"
b1000 D
b1000 p"
b101 >
b101 r"
b11 @
b11 q"
b1000 X
b1000 y"
b1000 6#
b1000000000000 n
b1000000000000 j
b1000000000000 s
b1000000000000 4#
b100 U"
1B
b0 g
b0 Q"
b0 9#
b0 i
b0 P"
b0 3#
0\
0F
b11100 &#
b11100 +#
b11100 ,#
b10100011000010001100011 c
b10100011000010001100011 @"
b10100011000010001100011 x"
b10100011000010001100011 $#
b11000 b
b11000 }
b11000 %#
b11000 0#
b11 X"
1'
#390000
0'
