waveform/mcu_test.vcd
$date
	Tue Mar  3 00:24:29 2026
$end
$version
	Icarus Verilog
$end
$timescale
	1ps
$end
$scope module mcu_test $end
$var reg 1 ! clk $end
$var reg 1 " rst_n $end
$scope module dut $end
$var wire 1 # apb_valid $end
$var wire 1 ! clk $end
$var wire 32 $ master_prdata [31:0] $end
$var wire 1 % master_pready $end
$var wire 32 & prdata_gpio [31:0] $end
$var wire 32 ' prdata_pwm [31:0] $end
$var wire 32 ( prdata_spi [31:0] $end
$var wire 32 ) prdata_uart [31:0] $end
$var wire 1 * pready_clint $end
$var wire 1 + pready_gpio $end
$var wire 1 , pready_pwm $end
$var wire 1 - pready_spi $end
$var wire 1 . pready_uart $end
$var wire 1 / psel_clint $end
$var wire 1 0 psel_gpio $end
$var wire 1 1 psel_pwm $end
$var wire 1 2 psel_spi $end
$var wire 1 3 psel_uart $end
$var wire 1 " rst_n $end
$var wire 32 4 prdata_clint [31:0] $end
$var wire 1 5 mtip_wire $end
$var wire 1 6 msip_wire $end
$var wire 1 7 master_pwrite $end
$var wire 32 8 master_pwdata [31:0] $end
$var wire 1 9 master_psel $end
$var wire 1 : master_penable $end
$var wire 32 ; master_paddr [31:0] $end
$var wire 1 < is_apb $end
$var wire 1 = core_bus_write $end
$var wire 32 > core_bus_wdata [31:0] $end
$var wire 1 ? core_bus_valid $end
$var wire 1 @ core_bus_ready $end
$var wire 32 A core_bus_rdata [31:0] $end
$var wire 32 B core_bus_addr [31:0] $end
$var wire 1 C apb_cpu_ready $end
$var wire 32 D apb_cpu_rdata [31:0] $end
$var reg 32 E mux_prdata [31:0] $end
$var reg 1 F mux_pready $end
$scope module u_apb_master $end
$var wire 1 # cpu_valid $end
$var wire 1 ! pclk $end
$var wire 32 G prdata [31:0] $end
$var wire 1 % pready $end
$var wire 1 " presetn $end
$var wire 1 = cpu_write $end
$var wire 32 H cpu_wdata [31:0] $end
$var wire 32 I cpu_addr [31:0] $end
$var parameter 2 J ACCESS $end
$var parameter 2 K IDLE $end
$var parameter 2 L SETUP $end
$var reg 32 M cpu_rdata [31:0] $end
$var reg 1 C cpu_ready $end
$var reg 2 N next_state [1:0] $end
$var reg 32 O paddr [31:0] $end
$var reg 1 : penable $end
$var reg 1 9 psel $end
$var reg 32 P pwdata [31:0] $end
$var reg 1 7 pwrite $end
$var reg 2 Q state [1:0] $end
$upscope $end
$scope module u_clint $end
$var wire 32 R paddr [31:0] $end
$var wire 1 ! pclk $end
$var wire 1 : penable $end
$var wire 1 * pready $end
$var wire 1 " presetn $end
$var wire 1 / psel $end
$var wire 32 S pwdata [31:0] $end
$var wire 1 7 pwrite $end
$var wire 1 5 mtip $end
$var wire 1 6 msip $end
$var reg 1 6 msip_reg $end
$var reg 64 T mtime [63:0] $end
$var reg 64 U mtimecmp [63:0] $end
$var reg 32 V prdata [31:0] $end
$upscope $end
$scope module u_core $end
$var wire 32 W bus_addr [31:0] $end
$var wire 32 X bus_rdata [31:0] $end
$var wire 1 @ bus_ready $end
$var wire 1 ? bus_valid $end
$var wire 32 Y bus_wdata [31:0] $end
$var wire 1 = bus_write $end
$var wire 1 ! clk $end
$var wire 1 Z core_bus_req $end
$var wire 1 [ cpu_stall $end
$var wire 1 \ dmem_re $end
$var wire 1 ] dmem_we $end
$var wire 1 ^ external_irq $end
$var wire 1 _ final_fbuf_en $end
$var wire 1 ` final_pc_write $end
$var wire 1 a final_reg_write $end
$var wire 1 b meip $end
$var wire 1 6 msip $end
$var wire 1 5 mtip $end
$var wire 1 c rst $end
$var wire 1 " rst_n $end
$var wire 1 d software_irq $end
$var wire 1 e timer_irq $end
$var wire 1 f zero $end
$var wire 2 g wb_sel [1:0] $end
$var wire 1 h trap_enter $end
$var wire 32 i trap_cause [31:0] $end
$var wire 5 j rs2_wire [4:0] $end
$var wire 32 k rs2_data_wire [31:0] $end
$var wire 5 l rs1_wire [4:0] $end
$var wire 32 m rs1_data_wire [31:0] $end
$var wire 1 n rf_latch_en $end
$var wire 1 o reg_write $end
$var wire 5 p rd_wire [4:0] $end
$var wire 32 q rd_data_wire [31:0] $end
$var wire 1 r pc_write $end
$var wire 2 s pc_src_sel [1:0] $end
$var wire 32 t pc_nxt [31:0] $end
$var wire 32 u muxed_mem_rdata [31:0] $end
$var wire 32 v mtvec_out [31:0] $end
$var wire 1 w mret_exec $end
$var wire 32 x mepc_out [31:0] $end
$var wire 1 y mem_write_en $end
$var wire 1 z mem_read_en $end
$var wire 32 { mem_read_data [31:0] $end
$var wire 1 | lt_unsigned $end
$var wire 1 } lt_signed $end
$var wire 1 ~ is_imem_addr $end
$var wire 1 !" is_dmem_addr $end
$var wire 1 "" is_apb_addr $end
$var wire 1 #" interrupt_pending $end
$var wire 32 $" interrupt_cause_wire [31:0] $end
$var wire 3 %" imm_sel [2:0] $end
$var wire 32 &" imm_out_wire [31:0] $end
$var wire 3 '" funct3_wire [2:0] $end
$var wire 32 (" fetch_pc [31:0] $end
$var wire 32 )" fetch_instr [31:0] $end
$var wire 1 *" fbuf_en $end
$var wire 1 +" data_misaligned $end
$var wire 1 ," csr_we $end
$var wire 32 -" csr_wdata_mux [31:0] $end
$var wire 32 ." csr_rdata_wire [31:0] $end
$var wire 2 /" csr_op [1:0] $end
$var wire 32 0" buffered_pc [31:0] $end
$var wire 32 1" buffered_instr [31:0] $end
$var wire 1 2" aluout_en $end
$var wire 4 3" alu_sel [3:0] $end
$var wire 32 4" alu_out_wire [31:0] $end
$var wire 2 5" alu_b_sel [1:0] $end
$var wire 32 6" alu_b_in [31:0] $end
$var wire 2 7" alu_a_sel [1:0] $end
$var wire 32 8" alu_a_in [31:0] $end
$var reg 32 9" ALUOut [31:0] $end
$var reg 32 :" RD1 [31:0] $end
$var reg 32 ;" RD2 [31:0] $end
$scope module ALU $end
$var wire 1 f zero $end
$var wire 32 <" sum [31:0] $end
$var wire 5 =" shamt [4:0] $end
$var wire 4 >" sel [3:0] $end
$var wire 1 | lt_unsigned $end
$var wire 1 } lt_signed $end
$var wire 1 ?" is_sub $end
$var wire 32 @" B [31:0] $end
$var wire 32 A" A [31:0] $end
$var reg 32 B" alu_out [31:0] $end
$upscope $end
$scope module CSR $end
$var wire 1 ! clk $end
$var wire 12 C" csr_addr [11:0] $end
$var wire 32 D" csr_old [31:0] $end
$var wire 32 E" csr_wdata [31:0] $end
$var wire 1 ^ ext_irq $end
$var wire 1 F" ext_qual $end
$var wire 1 #" interrupt_pending $end
$var wire 32 G" mepc_out [31:0] $end
$var wire 32 H" mtvec_out [31:0] $end
$var wire 1 c rst $end
$var wire 1 d sw_irq $end
$var wire 1 I" sw_qual $end
$var wire 1 J" tim_qual $end
$var wire 1 e timer_irq $end
$var wire 32 K" trap_pc [31:0] $end
$var wire 1 h trap_enter $end
$var wire 32 L" trap_cause [31:0] $end
$var wire 1 w mret_exec $end
$var wire 32 M" interrupt_cause [31:0] $end
$var wire 1 N" global_ie $end
$var wire 1 O" csr_write_en $end
$var wire 1 ," csr_valid $end
$var wire 2 P" csr_op [1:0] $end
$var parameter 32 Q" misa $end
$var reg 32 R" csr_new [31:0] $end
$var reg 32 S" csr_rdata [31:0] $end
$var reg 32 T" mcause [31:0] $end
$var reg 32 U" mepc [31:0] $end
$var reg 32 V" mie [31:0] $end
$var reg 32 W" mip [31:0] $end
$var reg 32 X" mscratch [31:0] $end
$var reg 32 Y" mstatus [31:0] $end
$var reg 32 Z" mtvec [31:0] $end
$upscope $end
$scope module CU $end
$var wire 1 @ bus_ready $end
$var wire 1 ! clk $end
$var wire 1 [" ebreak_true $end
$var wire 1 \" ecall_true $end
$var wire 32 ]" interrupt_cause [31:0] $end
$var wire 1 #" interrupt_pending $end
$var wire 1 } lt_signed $end
$var wire 1 | lt_unsigned $end
$var wire 1 ^" mret_true $end
$var wire 1 _" privileged_instr $end
$var wire 1 c rst $end
$var wire 1 f zero $end
$var wire 1 `" system_instr $end
$var wire 7 a" opcode [6:0] $end
$var wire 1 b" is_system $end
$var wire 1 c" is_store $end
$var wire 1 d" is_rtype $end
$var wire 1 e" is_lui $end
$var wire 1 f" is_load $end
$var wire 1 g" is_jalr $end
$var wire 1 h" is_jal $end
$var wire 1 i" is_itype $end
$var wire 1 j" is_branch $end
$var wire 1 k" is_auipc $end
$var wire 32 l" instr_in [31:0] $end
$var wire 12 m" imm12 [11:0] $end
$var wire 7 n" funct7 [6:0] $end
$var wire 3 o" funct3 [2:0] $end
$var parameter 4 p" S_BRANCH $end
$var parameter 4 q" S_CSR $end
$var parameter 4 r" S_DECODE $end
$var parameter 4 s" S_EXECUTE $end
$var parameter 4 t" S_FETCH $end
$var parameter 4 u" S_FETCH_WAIT $end
$var parameter 4 v" S_JALR $end
$var parameter 4 w" S_MEM_READ $end
$var parameter 4 x" S_MEM_WAIT $end
$var parameter 4 y" S_MEM_WRITE $end
$var parameter 4 z" S_TRAP $end
$var parameter 4 {" S_WB $end
$var reg 2 |" alu_a_sel [1:0] $end
$var reg 2 }" alu_b_sel [1:0] $end
$var reg 4 ~" alu_sel [3:0] $end
$var reg 1 2" aluout_en $end
$var reg 2 !# csr_op [1:0] $end
$var reg 1 ," csr_we $end
$var reg 1 *" fbuf_en $end
$var reg 3 "# imm_sel [2:0] $end
$var reg 1 z mem_read $end
$var reg 1 y mem_write $end
$var reg 1 w mret_exec $end
$var reg 4 ## next_state [3:0] $end
$var reg 32 $# next_trap_cause [31:0] $end
$var reg 2 %# pc_src_sel [1:0] $end
$var reg 1 r pc_write $end
$var reg 1 o reg_write $end
$var reg 1 n rf_latch_en $end
$var reg 4 &# state [3:0] $end
$var reg 32 '# trap_cause [31:0] $end
$var reg 32 (# trap_cause_reg [31:0] $end
$var reg 1 h trap_enter $end
$var reg 2 )# wb_sel [1:0] $end
$upscope $end
$scope module DM $end
$var wire 32 *# address [31:0] $end
$var wire 1 ! clk $end
$var wire 3 +# funct3 [2:0] $end
$var wire 1 \ read_en $end
$var wire 32 ,# write_data [31:0] $end
$var wire 1 ] write_en $end
$var wire 10 -# word_addr [9:0] $end
$var wire 2 .# byte_offset [1:0] $end
$var parameter 3 /# F3_LB $end
$var parameter 3 0# F3_LBU $end
$var parameter 3 1# F3_LH $end
$var parameter 3 2# F3_LHU $end
$var parameter 3 3# F3_LW $end
$var parameter 3 4# F3_SB $end
$var parameter 3 5# F3_SH $end
$var parameter 3 6# F3_SW $end
$var reg 4 7# byte_en [3:0] $end
$var reg 1 +" misaligned $end
$var reg 32 8# raw_read_word [31:0] $end
$var reg 32 9# read_data [31:0] $end
$var reg 3 :# read_funct3_reg [2:0] $end
$var reg 2 ;# read_offset_reg [1:0] $end
$var reg 32 <# wdata_aligned [31:0] $end
$var integer 32 =# i [31:0] $end
$upscope $end
$scope module RF $end
$var wire 1 ! clk $end
$var wire 5 ># rd [4:0] $end
$var wire 1 a reg_write $end
$var wire 5 ?# rs1 [4:0] $end
$var wire 5 @# rs2 [4:0] $end
$var wire 32 A# rs2_data [31:0] $end
$var wire 32 B# rs1_data [31:0] $end
$var wire 32 C# rd_data [31:0] $end
$var integer 32 D# i [31:0] $end
$upscope $end
$scope module SignExt $end
$var wire 3 E# imm_sel [2:0] $end
$var wire 32 F# instr_in [31:0] $end
$var reg 32 G# imm_out [31:0] $end
$upscope $end
$scope module WB $end
$var wire 32 H# in0 [31:0] $end
$var wire 32 I# in1 [31:0] $end
$var wire 32 J# in2 [31:0] $end
$var wire 32 K# in3 [31:0] $end
$var wire 2 L# select [1:0] $end
$var reg 32 M# mux_out [31:0] $end
$upscope $end
$scope module dut_buffer $end
$var wire 1 ! clk $end
$var wire 1 _ fbuf_en $end
$var wire 1 c rst $end
$var wire 32 N# pc_in [31:0] $end
$var wire 32 O# instr_in [31:0] $end
$var reg 32 P# instr [31:0] $end
$var reg 32 Q# pc [31:0] $end
$upscope $end
$scope module dut_fetch $end
$var wire 1 ! clk $end
$var wire 1 ` pc_write $end
$var wire 1 c rst $end
$var wire 32 R# pc_out_wire [31:0] $end
$var wire 32 S# pc_nxt [31:0] $end
$var wire 32 T# pc_current [31:0] $end
$var wire 32 U# instr_out [31:0] $end
$scope module PC $end
$var wire 1 ! clk $end
$var wire 1 ` pc_write $end
$var wire 1 c rst $end
$var wire 32 V# pc_val [31:0] $end
$var reg 32 W# pc_out [31:0] $end
$upscope $end
$scope module ROM $end
$var wire 32 X# addr [31:0] $end
$var wire 1 ! clk $end
$var reg 32 Y# addr_out [31:0] $end
$var reg 32 Z# instr [31:0] $end
$upscope $end
$upscope $end
$scope module muxA $end
$var wire 32 [# in0 [31:0] $end
$var wire 32 \# in1 [31:0] $end
$var wire 32 ]# in2 [31:0] $end
$var wire 32 ^# in3 [31:0] $end
$var wire 2 _# select [1:0] $end
$var reg 32 `# mux_out [31:0] $end
$upscope $end
$scope module muxB $end
$var wire 32 a# in0 [31:0] $end
$var wire 32 b# in1 [31:0] $end
$var wire 32 c# in2 [31:0] $end
$var wire 32 d# in3 [31:0] $end
$var wire 2 e# select [1:0] $end
$var reg 32 f# mux_out [31:0] $end
$upscope $end
$scope module mux_pc $end
$var wire 32 g# in0 [31:0] $end
$var wire 32 h# in1 [31:0] $end
$var wire 32 i# in2 [31:0] $end
$var wire 32 j# in3 [31:0] $end
$var wire 2 k# select [1:0] $end
$var reg 32 l# mux_out [31:0] $end
$upscope $end
$upscope $end
$upscope $end
$scope task print_mcu_state $end
$var integer 32 m# i [31:0] $end
$upscope $end
$upscope $end
$enddefinitions $end
$comment Show the parameter values. $end
$dumpall
b10 6#
b1 5#
b0 4#
b10 3#
b101 2#
b1 1#
b100 0#
b0 /#
b101 {"
b1011 z"
b1000 y"
b111 x"
b110 w"
b1010 v"
b10 u"
b1 t"
b100 s"
b11 r"
b1100 q"
b1001 p"
b1000000000000000000000100000000 Q"
b1 L
b0 K
b10 J
$end
#0
$dumpvars
bx m#
bx l#
b0 k#
bx j#
bx i#
bx0 h#
bx g#
bx f#
b0 e#
b0 d#
b100 c#
b0 b#
bx a#
bx `#
b0 _#
bx ^#
b0 ]#
bx \#
bx [#
bx Z#
bx Y#
bx X#
bx W#
bx V#
bx U#
bx T#
bx S#
bx R#
bx Q#
bx P#
bx O#
bx N#
bx M#
b0 L#
bx K#
bx J#
bx I#
bx H#
b0 G#
bx F#
b0 E#
b100000 D#
bx C#
bx B#
bx A#
bx @#
bx ?#
bx >#
b10000000000 =#
bx <#
bx ;#
bx :#
bx 9#
bx 8#
b0 7#
bx .#
bx -#
bx ,#
bx +#
bx *#
b0 )#
bx (#
bx '#
bx &#
b0 %#
b10 $#
b1 ##
b0 "#
b0 !#
b0 ~"
b0 }"
b0 |"
bx o"
bx n"
bx m"
bx l"
xk"
xj"
xi"
xh"
xg"
xf"
xe"
xd"
xc"
xb"
bx a"
x`"
x_"
x^"
bx000000000000000000000000000xxxx ]"
x\"
x["
bx Z"
bx Y"
bx X"
bx W"
bx V"
bx U"
bx T"
bx S"
bx R"
b0 P"
1O"
xN"
bx000000000000000000000000000xxxx M"
bx L"
bx K"
xJ"
xI"
bx H"
bx G"
xF"
bx E"
bx D"
bx C"
bx B"
bx A"
bx @"
0?"
b0 >"
bx ="
bx <"
bx ;"
bx :"
bx 9"
bx 8"
b0 7"
bx 6"
b0 5"
bx 4"
b0 3"
02"
bx 1"
bx 0"
b0 /"
bx ."
bx -"
0,"
x+"
0*"
bx )"
bx ("
bx '"
b0 &"
b0 %"
bx000000000000000000000000000xxxx $"
x#"
x""
x!"
x~
x}
x|
bx {
0z
0y
bx x
0w
bx v
bx u
bx t
b0 s
0r
bx q
bx p
0o
0n
bx m
bx l
bx k
bx j
bx i
0h
b0 g
xf
0e
0d
1c
0b
0a
0`
0_
0^
0]
0\
0[
0Z
bx Y
b0 X
bx W
b0 V
b1111111111111111111111111111111111111111111111111111111111111111 U
b0 T
b0 S
b0 R
b0 Q
b0 P
b0 O
b0 N
b0 M
bx I
bx H
b0 G
1F
b0 E
b0 D
0C
bx B
b0 A
1@
0?
bx >
0=
x<
b0 ;
0:
09
b0 8
07
06
05
b0 4
03
02
01
00
0/
1.
1-
1,
1+
1*
b0 )
b0 (
b0 '
b0 &
1%
b0 $
0#
0"
0!
$end
#5000
b0 R"
0#"
b0 -"
b0 E"
b0 $"
b0 M"
b0 ]"
0\"
0["
0^"
0_"
b0 k
b0 A#
b0 m
b0 B#
0F"
0I"
0J"
bx <"
b100 ="
b0 u
b0 I#
0+"
b0 m"
b0 n"
b0 o"
0d"
0i"
0f"
0c"
0j"
0h"
0g"
0e"
0k"
0b"
0`"
b0 a"
b0 C"
b0 '"
b0 +#
b0 p
b0 >#
b0 j
b0 @#
b0 l
b0 ?#
b10 ##
b10 5"
b10 }"
b10 e#
b11 7"
b11 |"
b11 _#
b0 i
b0 L"
b0 '#
0N"
b0 D"
b0 ."
b0 S"
b0 J#
b0 <#
x|
x}
b100 6"
b100 @"
b100 f#
bx 8"
bx A"
bx `#
1~
0!"
0""
b0 -#
b0 .#
b0 q
b0 C#
b0 M#
0<
b0 R#
b0 W#
b0 X#
b0 1"
b0 l"
b0 F#
b0 P#
b0 0"
b0 K"
b0 Q#
b0 \#
b0 (#
b1 &#
b0 X"
b0 V"
b0 Y"
b0 T"
b0 x
b0 G"
b0 j#
b0 U"
b100000000 v
b100000000 H"
b100000000 i#
b100000000 Z"
b0 W"
b0 >
b0 H
b0 Y
b0 ;"
b0 ,#
b0 a#
b0 :"
b0 [#
b0 B
b0 I
b0 W
b0 9"
b0 *#
b0 H#
b0 K#
1!
#10000
0!
#15000
b100 t
b100 S#
b100 V#
b100 l#
b100 h#
b10 5"
b10 }"
b10 e#
b11 7"
b11 |"
b11 _#
b10 ##
0f
b100 4"
b100 B"
b100 g#
b100 <"
1|
1}
b0 8"
b0 A"
b0 `#
b0 ("
b0 N#
b0 T#
b0 Y#
b0 ^#
b100010000000000001010010011 )"
b100010000000000001010010011 O#
b100010000000000001010010011 U#
b100010000000000001010010011 Z#
1!
#20000
0!
#25000
1!
#30000
0!
#35000
1!
#40000
0!
#45000
1!
#50000
0c
0!
1"
#55000
1_
1`
b11 ##
1*"
1r
b10 5"
b10 }"
b10 e#
b11 7"
b11 |"
b11 _#
b1 T
b10 &#
1!
#60000
0!
#65000
b0 t
b0 S#
b0 V#
b0 l#
b0 h#
1f
b0 4"
b0 B"
b0 g#
b1000100 &"
b1000100 G#
b1000100 b#
b0 <"
b0 ="
b1 %"
b1 "#
b1 E#
0|
0}
b0 6"
b0 @"
b0 f#
0_
0`
b1000100 m"
b10 n"
1i"
b10011 a"
b1000100 C"
b101 p
b101 >#
b100 j
b100 @#
b100 ##
1n
b0 5"
b0 }"
b0 e#
b0 7"
b0 |"
b0 _#
0*"
0r
b10 T
b100 R#
b100 W#
b100 X#
b100010000000000001010010011 1"
b100010000000000001010010011 l"
b100010000000000001010010011 F#
b100010000000000001010010011 P#
b11 &#
1!
#70000
0!
#75000
b1000100 t
b1000100 S#
b1000100 V#
b1000100 l#
b1000100 h#
0f
b1000100 4"
b1000100 B"
b1000100 g#
b1000100 <"
b100 ="
1|
1}
b1000100 6"
b1000100 @"
b1000100 f#
b101 ##
12"
b1 5"
b1 }"
b1 e#
0n
b11 T
b100 &#
b100 ("
b100 N#
b100 T#
b100 Y#
b100 ^#
b110000010100101001000001110011 )"
b110000010100101001000001110011 O#
b110000010100101001000001110011 U#
b110000010100101001000001110011 Z#
1!
#80000
0!
#85000
b0 t
b0 S#
b0 V#
b0 l#
b0 h#
1f
b0 4"
b0 B"
b0 g#
b0 <"
b0 ="
1a
0|
0}
b0 6"
b0 @"
b0 f#
b1 ##
1o
02"
b0 5"
b0 }"
b0 e#
b10001 -#
b1000100 q
b1000100 C#
b1000100 M#
b100 T
b101 &#
b1000100 B
b1000100 I
b1000100 W
b1000100 9"
b1000100 *#
b1000100 H#
b1000100 K#
1!
#90000
0!
#95000
b1000 t
b1000 S#
b1000 V#
b1000 l#
b1000 h#
b100 ="
0f
b1000 4"
b1000 B"
b1000 g#
b100 6"
b100 @"
b100 f#
b1000 <"
b100 8"
b100 A"
b100 `#
0a
b10 ##
b10 5"
b10 }"
b10 e#
b11 7"
b11 |"
b11 _#
0o
b101 T
b1 &#
1!
#100000
0!
#105000
1_
1`
b11 ##
1*"
1r
b10 5"
b10 }"
b10 e#
b11 7"
b11 |"
b11 _#
b110 T
b10 &#
1!
#110000
0!
#115000
1f
b0 t
b0 S#
b0 V#
b0 l#
b0 h#
b1000100 R"
b1000100 -"
b1000100 E"
b0 ="
b0 4"
b0 B"
b0 g#
b0 %"
b0 "#
b0 E#
b100000000 D"
b100000000 ."
b100000000 S"
b100000000 J#
b1000100 k
b1000100 A#
b1000100 m
b1000100 B#
b0 <"
b0 8"
b0 A"
b0 `#
0_
0`
b0 6"
b0 @"
b0 f#
b1100000101 m"
b11000 n"
b1 o"
0i"
1b"
1`"
b1110011 a"
b1100000101 C"
b1 '"
b1 +#
b0 p
b0 >#
b101 j
b101 @#
b101 l
b101 ?#
b100 ##
1n
b0 5"
b0 }"
b0 e#
b0 7"
b0 |"
b0 _#
0*"
0r
b0 &"
b0 G#
b0 b#
b111 T
b11 &#
b110000010100101001000001110011 1"
b110000010100101001000001110011 l"
b110000010100101001000001110011 F#
b110000010100101001000001110011 P#
b100 0"
b100 K"
b100 Q#
b100 \#
b1000 R#
b1000 W#
b1000 X#
1!
#120000
0!
#125000
b10001000 t
b10001000 S#
b10001000 V#
b10001000 l#
b10001000 h#
b100 ="
0f
b10001000 4"
b10001000 B"
b10001000 g#
b1100 ##
0n
b10001000000000001000100 <#
b1000100 6"
b1000100 @"
b1000100 f#
b10001000 <"
b1000100 8"
b1000100 A"
b1000100 `#
b1000 T
b1000 ("
b1000 N#
b1000 T#
b1000 Y#
b1000 ^#
b1000000000000000000001010110111 )"
b1000000000000000000001010110111 O#
b1000000000000000000001010110111 U#
b1000000000000000000001010110111 Z#
b100 &#
b1000100 >
b1000100 H
b1000100 Y
b1000100 ;"
b1000100 ,#
b1000100 a#
b1000100 :"
b1000100 [#
1!
#130000
0!
#135000
b100000000 q
b100000000 C#
b100000000 M#
1a
b1 ##
1,"
b10 g
b10 )#
b10 L#
1o
b1001 T
b1100 &#
1!
#140000
0!
#145000
b1100 t
b1100 S#
b1100 V#
b1100 l#
b1100 h#
b1100 4"
b1100 B"
b1100 g#
b100 6"
b100 @"
b100 f#
b1100 <"
0|
0}
b1000 8"
b1000 A"
b1000 `#
0a
b1000100 q
b1000100 C#
b1000100 M#
b10 ##
b10 5"
b10 }"
b10 e#
b11 7"
b11 |"
b11 _#
0,"
b0 g
b0 )#
b0 L#
0o
b1000100 D"
b1000100 ."
b1000100 S"
b1000100 J#
b1010 T
b1 &#
b1000100 v
b1000100 H"
b1000100 i#
b1000100 Z"
1!
#150000
0!
#155000
1_
1`
b11 ##
1*"
1r
b10 5"
b10 }"
b10 e#
b11 7"
b11 |"
b11 _#
b1011 T
b10 &#
1!
#160000
0!
#165000
b1000000000000000000000000000000 &"
b1000000000000000000000000000000 G#
b1000000000000000000000000000000 b#
b0 R"
b0 -"
b0 E"
b10001000 t
b10001000 S#
b10001000 V#
b10001000 l#
b10001000 h#
b100 %"
b100 "#
b100 E#
b0 D"
b0 ."
b0 S"
b0 J#
b1000100010001000100010001000100 <#
b0 k
b0 A#
b0 m
b0 B#
b10001000 4"
b10001000 B"
b10001000 g#
b1000100 6"
b1000100 @"
b1000100 f#
0_
0`
b10000000000 m"
b100000 n"
b0 o"
1e"
0b"
0`"
b110111 a"
b10000000000 C"
b0 '"
b0 +#
b101 p
b101 >#
b0 j
b0 @#
b0 l
b0 ?#
b10001000 <"
b1000100 8"
b1000100 A"
b1000100 `#
b100 ##
1n
b0 5"
b0 }"
b0 e#
b0 7"
b0 |"
b0 _#
0*"
0r
b1100 T
b1100 R#
b1100 W#
b1100 X#
b1000000000000000000001010110111 1"
b1000000000000000000001010110111 l"
b1000000000000000000001010110111 F#
b1000000000000000000001010110111 P#
b1000 0"
b1000 K"
b1000 Q#
b1000 \#
b11 &#
1!
#170000
0!
#175000
b1000000000000000000000000000000 t
b1000000000000000000000000000000 S#
b1000000000000000000000000000000 V#
b1000000000000000000000000000000 l#
b1000000000000000000000000000000 h#
b0 ="
b1000000000000000000000000000000 4"
b1000000000000000000000000000000 B"
b1000000000000000000000000000000 g#
b0 <#
b1000000000000000000000000000000 6"
b1000000000000000000000000000000 @"
b1000000000000000000000000000000 f#
b101 ##
12"
b1 5"
b1 }"
b1 e#
b10 7"
b10 |"
b10 _#
0n
b1000000000000000000000000000000 <"
1|
1}
b0 8"
b0 A"
b0 `#
b1101 T
b0 >
b0 H
b0 Y
b0 ;"
b0 ,#
b0 a#
b0 :"
b0 [#
b100 &#
b1100 ("
b1100 N#
b1100 T#
b1100 Y#
b1100 ^#
b1100010011 )"
b1100010011 O#
b1100010011 U#
b1100010011 Z#
1!
#180000
0!
#185000
b0 t
b0 S#
b0 V#
b0 l#
b0 h#
1f
b0 4"
b0 B"
b0 g#
b0 <"
1a
0|
0}
b0 6"
b0 @"
b0 f#
b1 ##
1o
02"
b0 5"
b0 }"
b0 e#
b0 7"
b0 |"
b0 _#
0~
1""
b0 -#
b1000000000000000000000000000000 q
b1000000000000000000000000000000 C#
b1000000000000000000000000000000 M#
1<
b1110 T
b101 &#
b1000000000000000000000000000000 B
b1000000000000000000000000000000 I
b1000000000000000000000000000000 W
b1000000000000000000000000000000 9"
b1000000000000000000000000000000 *#
b1000000000000000000000000000000 H#
b1000000000000000000000000000000 K#
1!
#190000
0!
#195000
b10000 t
b10000 S#
b10000 V#
b10000 l#
b10000 h#
b100 ="
0f
b10000 4"
b10000 B"
b10000 g#
b100 6"
b100 @"
b100 f#
b10000 <"
b1100 8"
b1100 A"
b1100 `#
0a
b10 ##
b10 5"
b10 }"
b10 e#
b11 7"
b11 |"
b11 _#
0o
b1111 T
b1 &#
1!
#200000
0!
#205000
1_
1`
b11 ##
1*"
1r
b10 5"
b10 }"
b10 e#
b11 7"
b11 |"
b11 _#
b10000 T
b10 &#
1!
#210000
0!
#215000
1f
b0 t
b0 S#
b0 V#
b0 l#
b0 h#
b0 ="
b0 4"
b0 B"
b0 g#
b1 %"
b1 "#
b1 E#
b0 <"
b0 8"
b0 A"
b0 `#
0_
0`
b0 6"
b0 @"
b0 f#
b0 m"
b0 n"
1i"
0e"
b10011 a"
b0 C"
b110 p
b110 >#
b100 ##
1n
b0 5"
b0 }"
b0 e#
b0 7"
b0 |"
b0 _#
0*"
0r
b0 &"
b0 G#
b0 b#
b10001 T
b11 &#
b1100010011 1"
b1100010011 l"
b1100010011 F#
b1100010011 P#
b1100 0"
b1100 K"
b1100 Q#
b1100 \#
b10000 R#
b10000 W#
b10000 X#
1!
#220000
0!
#225000
b101 ##
12"
b1 5"
b1 }"
b1 e#
0n
b10010 T
b10000 ("
b10000 N#
b10000 T#
b10000 Y#
b10000 ^#
b11000101010011000100011 )"
b11000101010011000100011 O#
b11000101010011000100011 U#
b11000101010011000100011 Z#
b100 &#
1!
#230000
0!
#235000
1a
1~
0""
b0 q
b0 C#
b0 M#
0<
b1 ##
1o
02"
b0 5"
b0 }"
b0 e#
b10011 T
b0 B
b0 I
b0 W
b0 9"
b0 *#
b0 H#
b0 K#
b101 &#
1!
#240000
0!
#245000
b10100 t
b10100 S#
b10100 V#
b10100 l#
b10100 h#
b100 ="
0f
b10100 4"
b10100 B"
b10100 g#
b100 6"
b100 @"
b100 f#
b10100 <"
b10000 8"
b10000 A"
b10000 `#
0a
b10 ##
b10 5"
b10 }"
b10 e#
b11 7"
b11 |"
b11 _#
0o
b10100 T
b1 &#
1!
#250000
0!
#255000
1_
1`
b11 ##
1*"
1r
b10 5"
b10 }"
b10 e#
b11 7"
b11 |"
b11 _#
b10101 T
b10 &#
1!
#260000
0!
#265000
b1000000000000000000000000000000 R"
1f
b1000000000000000000000000000000 -"
b1000000000000000000000000000000 E"
b0 t
b0 S#
b0 V#
b0 l#
b0 h#
b0 ="
b1000000000000000000000000000000 m
b1000000000000000000000000000000 B#
b10 %"
b10 "#
b10 E#
b0 4"
b0 B"
b0 g#
b0 6"
b0 @"
b0 f#
0_
0`
b110 m"
b10 o"
0i"
1c"
b100011 a"
b110 C"
b10 '"
b10 +#
b1100 p
b1100 >#
b110 j
b110 @#
b101 l
b101 ?#
b1100 &"
b1100 G#
b1100 b#
b0 <"
0|
0}
b0 8"
b0 A"
b0 `#
b100 ##
1n
b0 5"
b0 }"
b0 e#
b0 7"
b0 |"
b0 _#
0*"
0r
b10110 T
b10100 R#
b10100 W#
b10100 X#
b11000101010011000100011 1"
b11000101010011000100011 l"
b11000101010011000100011 F#
b11000101010011000100011 P#
b10000 0"
b10000 K"
b10000 Q#
b10000 \#
b11 &#
1!
#270000
0!
#275000
b1100 ="
b1000000000000000000000000001100 t
b1000000000000000000000000001100 S#
b1000000000000000000000000001100 V#
b1000000000000000000000000001100 l#
b1000000000000000000000000001100 h#
b1100 6"
b1100 @"
b1100 f#
0f
b1000000000000000000000000001100 4"
b1000000000000000000000000001100 B"
b1000000000000000000000000001100 g#
b1000 ##
12"
b1 5"
b1 }"
b1 e#
0n
b1000000000000000000000000001100 <"
b1000000000000000000000000000000 8"
b1000000000000000000000000000000 A"
b1000000000000000000000000000000 `#
b10111 T
b1000000000000000000000000000000 :"
b1000000000000000000000000000000 [#
b100 &#
b10100 ("
b10100 N#
b10100 T#
b10100 Y#
b10100 ^#
b1100100000000000001100010011 )"
b1100100000000000001100010011 O#
b1100100000000000001100010011 U#
b1100100000000000001100010011 Z#
1!
#280000
0!
